…
# Modifed figures for TRR manuscript



## Load data


```
## # A tibble: 400 × 15
##    region uv_po…¹ is_roi  mv_ICC uv_ICC mv_tr…² uv_tr…³ mv_trr…⁴ uv_tr…⁵ mv_tr…⁶
##    <chr>    <dbl> <lgl>    <dbl>  <dbl>   <dbl>   <dbl>    <dbl>   <dbl>   <dbl>
##  1 17Net…    6.40 TRUE    0.438   0.583  0.624    0.935  5.34e-1   0.699  0.153 
##  2 17Net…    6.34 TRUE    0.295   0.534  0.498    0.874  3.99e-1   0.480 -0.0446
##  3 17Net…    5.73 TRUE    0.537   0.397  0.679    0.920  6.07e-1   0.699  0.260 
##  4 17Net…    5.46 TRUE    0.463   0.572  0.634    0.965  5.62e-1   0.838  0.183 
##  5 17Net…    5.45 TRUE    0.712   0.537  0.973    0.961  8.89e-1   0.826  0.675 
##  6 17Net…    5.37 TRUE   -0.0643  0.298  0.0467   0.878 -2.03e-4   0.643 -0.845 
##  7 17Net…    5.13 TRUE    0.184   0.113  0.476    0.423  4.13e-1   0.339 -0.101 
##  8 17Net…    4.98 TRUE    0.365   0.357  0.728    0.849  5.84e-1   0.412  0.0688
##  9 17Net…    4.95 TRUE    0.639   0.621  0.900    0.960  7.80e-1   0.829  0.465 
## 10 17Net…    4.88 TRUE    0.579   0.715  0.846    0.981  7.62e-1   0.919  0.490 
## # … with 390 more rows, 5 more variables: uv_trr_05 <dbl>, mv_trr_sd <dbl>,
## #   uv_trr_sd <dbl>, mv_ratio <dbl>, uv_ratio <dbl>, and abbreviated variable
## #   names ¹​uv_pop_tstat_div, ²​mv_trr_map, ³​uv_trr_map, ⁴​mv_trr_mean,
## #   ⁵​uv_trr_mean, ⁶​mv_trr_05
```
…
