…
$$
z_{rp} = {\langle y_{tcrp} \rangle}_{t,\ c = \text{Incongruent}} - {\langle y_{tcrp} \rangle}_{t,\ c = \text{Congruent}} \\
\text{TRR} = \text{Cor}(z_{1p}, z_{2p})
$$

First we plot the TRR estimated from univariate or multivariate methods for each region:


```
## [1] "TRRs estimated from Pearson correlation:"
```

```
## # A tibble: 400 x 4
##    region                          rda     uv is_core32
##    <chr>                         <dbl>  <dbl> <lgl>    
##  1 17Networks_LH_ContA_Cingm_1 -0.101  0.293  FALSE    
##  2 17Networks_LH_ContA_IPS_1    0.531  0.592  FALSE    
##  3 17Networks_LH_ContA_IPS_2   -0.0428 0.482  FALSE    
##  4 17Networks_LH_ContA_IPS_3    0.537  0.397  FALSE    
##  5 17Networks_LH_ContA_IPS_4    0.639  0.621  FALSE    
##  6 17Networks_LH_ContA_IPS_5    0.712  0.537  FALSE    
##  7 17Networks_LH_ContA_PFCd_1   0.534  0.0817 TRUE     
##  8 17Networks_LH_ContA_PFCl_1   0.432  0.564  TRUE     
##  9 17Networks_LH_ContA_PFCl_2   0.438  0.583  TRUE     
## 10 17Networks_LH_ContA_PFCl_3   0.295  0.534  TRUE     
## # … with 390 more rows
```
…
We made the same plots, but this time we only include core32 regions, and show the mean of the data by a red dot (same below).


```
## [1] "TRRs estimated from 'fixed_sigma' model:"
```

```
## # A tibble: 32 x 3
##    region                           uv    rda
##    <chr>                         <dbl>  <dbl>
##  1 17Networks_LH_ContA_PFCd_1   0.135  0.786 
##  2 17Networks_LH_ContA_PFCl_1   0.772  0.655 
##  3 17Networks_LH_ContA_PFCl_2   0.727  0.539 
##  4 17Networks_LH_ContA_PFCl_3   0.680  0.342 
##  5 17Networks_LH_ContA_PFClv_2  0.461  0.610 
##  6 17Networks_LH_ContB_IPL_2    0.339  0.646 
##  7 17Networks_LH_ContB_PFClv_1  0.719  0.604 
##  8 17Networks_LH_ContB_PFClv_2 -0.0692 0.205 
##  9 17Networks_LH_ContB_PFClv_3  0.0971 0.567 
## 10 17Networks_LH_ContC_Cingp_2  0.0554 0.0171
## # … with 22 more rows
```
…
The same scatter plot:


```
## [1] "TRRs estimated from 'no_lscov_symm' model:"
```

```
## # A tibble: 32 x 3
##    region                          uv    rda
##    <chr>                        <dbl>  <dbl>
##  1 17Networks_LH_ContA_PFCd_1  0.312  0.766 
##  2 17Networks_LH_ContA_PFCl_1  0.804  0.708 
##  3 17Networks_LH_ContA_PFCl_2  0.721  0.565 
##  4 17Networks_LH_ContA_PFCl_3  0.500  0.419 
##  5 17Networks_LH_ContA_PFClv_2 0.353  0.597 
##  6 17Networks_LH_ContB_IPL_2   0.462  0.661 
##  7 17Networks_LH_ContB_PFClv_1 0.667  0.686 
##  8 17Networks_LH_ContB_PFClv_2 0.0592 0.0994
##  9 17Networks_LH_ContB_PFClv_3 0.0671 0.512 
## 10 17Networks_LH_ContC_Cingp_2 0.114  0.0840
## # … with 22 more rows
```
…
