…
# Modifed figures for TRR manuscript



## Load data


```
## # A tibble: 400 × 15
##    region uv_po…¹ is_roi  mv_ICC uv_ICC mv_tr…² uv_tr…³ mv_trr…⁴ uv_tr…⁵ mv_tr…⁶
##    <chr>    <dbl> <lgl>    <dbl>  <dbl>   <dbl>   <dbl>    <dbl>   <dbl>   <dbl>
##  1 17Net…    6.40 TRUE    0.438   0.583  0.624    0.935  5.34e-1   0.699  0.153 
##  2 17Net…    6.34 TRUE    0.295   0.534  0.498    0.874  3.99e-1   0.480 -0.0446
##  3 17Net…    5.73 TRUE    0.537   0.397  0.679    0.920  6.07e-1   0.699  0.260 
##  4 17Net…    5.46 TRUE    0.463   0.572  0.634    0.965  5.62e-1   0.838  0.183 
##  5 17Net…    5.45 TRUE    0.712   0.537  0.973    0.961  8.89e-1   0.826  0.675 
##  6 17Net…    5.37 TRUE   -0.0643  0.298  0.0467   0.878 -2.03e-4   0.643 -0.845 
##  7 17Net…    5.13 TRUE    0.184   0.113  0.476    0.423  4.13e-1   0.339 -0.101 
##  8 17Net…    4.98 TRUE    0.365   0.357  0.728    0.849  5.84e-1   0.412  0.0688
##  9 17Net…    4.95 TRUE    0.639   0.621  0.900    0.960  7.80e-1   0.829  0.465 
## 10 17Net…    4.88 TRUE    0.579   0.715  0.846    0.981  7.62e-1   0.919  0.490 
## # … with 390 more rows, 5 more variables: uv_trr_05 <dbl>, mv_trr_sd <dbl>,
## #   uv_trr_sd <dbl>, mv_ratio <dbl>, uv_ratio <dbl>, and abbreviated variable
## #   names ¹​uv_pop_tstat_div, ²​mv_trr_map, ³​uv_trr_map, ⁴​mv_trr_mean,
## #   ⁵​uv_trr_mean, ⁶​mv_trr_05
```
…
Obviously, the uncertainty of TRR is positively correlated with the noise ratio (with a Spearman correlation above .9), and negatively correlated with ICC (Spearman correlation around -.6).

Therefore, it is interesting to examine the parcels where MVPA can and cannot reduce noise ratio:

<div class="figure">
<img src="figure/uv_vs_mv_ratio_brain-1.png" alt="plot of chunk uv_vs_mv_ratio_brain" width="100%" />
<p class="caption">plot of chunk uv_vs_mv_ratio_brain</p>
</div>

```
## [1] "Parcels where UV ratio is lowest compare to MV (i.e., weird ones):"
```

```
## # A tibble: 400 × 2
##    region                               uv_vs_mv_ratio
##    <chr>                                         <dbl>
##  1 17Networks_RH_LimbicA_TempPole_4             -0.945
##  2 17Networks_RH_SomMotA_5                      -0.770
##  3 17Networks_RH_VisCent_ExStr_2                -0.619
##  4 17Networks_RH_LimbicB_OFC_6                  -0.574
##  5 17Networks_LH_LimbicB_OFC_5                  -0.501
##  6 17Networks_RH_TempPar_5                      -0.479
##  7 17Networks_RH_SomMotB_Aud_1                  -0.442
##  8 17Networks_LH_ContC_pCun_1                   -0.437
##  9 17Networks_LH_SomMotA_5                      -0.430
## 10 17Networks_LH_VisPeri_ExStrSup_5             -0.420
## 11 17Networks_LH_LimbicA_TempPole_4             -0.362
## 12 17Networks_RH_SalVentAttnA_ParOper_3         -0.349
## 13 17Networks_RH_ContC_Cingp_2                  -0.331
## 14 17Networks_LH_LimbicA_TempPole_5             -0.313
## 15 17Networks_LH_VisPeri_ExStrInf_2             -0.305
## 16 17Networks_RH_SomMotB_S2_6                   -0.303
## 17 17Networks_RH_DorsAttnB_FEF_1                -0.301
## 18 17Networks_LH_DefaultB_Temp_1                -0.296
## 19 17Networks_LH_LimbicA_TempPole_1             -0.271
## 20 17Networks_RH_VisPeri_ExStrInf_3             -0.255
## 21 17Networks_RH_SomMotA_9                      -0.252
## 22 17Networks_LH_DefaultA_pCunPCC_4             -0.251
## 23 17Networks_RH_SomMotB_Ins_1                  -0.249
## 24 17Networks_LH_SomMotA_11                     -0.247
## 25 17Networks_LH_DefaultA_PFCm_1                -0.244
## 26 17Networks_LH_ContB_Temp_1                   -0.244
## 27 17Networks_RH_SalVentAttnA_FrOper_1          -0.243
## 28 17Networks_LH_SomMotA_19                     -0.239
## 29 17Networks_LH_LimbicA_TempPole_2             -0.231
## 30 17Networks_LH_VisPeri_ExStrSup_2             -0.230
## 31 17Networks_RH_SomMotA_10                     -0.229
## 32 17Networks_RH_SalVentAttnA_ParMed_2          -0.215
## 33 17Networks_RH_VisPeri_ExStrInf_5             -0.211
## 34 17Networks_LH_SomMotB_Cent_3                 -0.206
## 35 17Networks_LH_SalVentAttnB_Ins_2             -0.201
## 36 17Networks_RH_SomMotA_19                     -0.195
## 37 17Networks_RH_SomMotA_14                     -0.193
## 38 17Networks_RH_DorsAttnA_TempOcc_1            -0.191
## 39 17Networks_LH_VisCent_ExStr_1                -0.190
## 40 17Networks_RH_LimbicB_OFC_2                  -0.190
## # … with 360 more rows
```
…
